…
If necessary, find the available assets for any exchange:

``` r
public_asset_list(exchange = "crypto.com")
#> # A tibble: 264 x 10
#>    instrument_name quote_currency base_currency price_decimals quantity_decimals
#>    <chr>           <chr>          <chr>                  <int>             <int>
#>  1 RSR_USDT        USDT           RSR                        5                 1
#>  2 PERP_USDT       USDT           PERP                       3                 3
#>  3 MATIC_BTC       BTC            MATIC                      9                 0
#>  4 SHIB_USDC       USDC           SHIB                       9                 0
#>  5 SHIB_USDT       USDT           SHIB                       9                 0
#>  6 GRT_CRO         CRO            GRT                        3                 2
#>  7 QI_USDT         USDT           QI                         5                 1
#>  8 HOD_USDT        USDT           HOD                        6                 0
#>  9 VET_BTC         BTC            VET                       10                 0
#> 10 VET_CRO         CRO            VET                        4                 0
#> # ... with 254 more rows, and 5 more variables: margin_trading_enabled <lgl>,
#> #   margin_trading_enabled_5x <lgl>, margin_trading_enabled_10x <lgl>,
#> #   max_quantity <dbl>, min_quantity <dbl>
```

View order book for varying depths:

``` r
public_order_book(exchange = "coinbase-pro", level = 2)
#> # A tibble: 16,557 x 4
#>    bids_price bids_qty asks_price asks_qty
#>         <dbl>    <dbl>      <dbl>    <dbl>
#>  1     47620.   0.0273     47624.   0.001 
#>  2     47620.   0.0271     47624.   0.001 
#>  3     47619.   0.0336     47624.   1.63  
#>  4     47619.   0.948      47626.   1.05  
#>  5     47619.   0.0378     47626.   0.106 
#>  6     47617.   0.0636     47627.   0.0210
#>  7     47616.   0.252      47627.   0.210 
#>  8     47616.   0.293      47628.   0.149 
#>  9     47615.   1.05       47629.   0.0267
#> 10     47614.   0.042      47629.   0.279 
#> # ... with 16,547 more rows
```
…
View recent trades:

``` r
public_trades(exchange = "kraken")
#> # A tibble: 1,000 x 6
#>    price       volume            time side  type  misc 
#>    <chr>       <chr>            <dbl> <chr> <chr> <chr>
#>  1 47569.30000 0.00025000 1641080241. b     l     ""   
#>  2 47569.30000 0.01345932 1641080242. b     l     ""   
#>  3 47569.20000 0.00337596 1641080256. s     m     ""   
#>  4 47569.20000 0.01225998 1641080256. s     m     ""   
#>  5 47562.10000 0.00060000 1641080256. s     m     ""   
#>  6 47550.10000 0.00837117 1641080256. s     m     ""   
#>  7 47550.10000 0.00398643 1641080256. s     m     ""   
#>  8 47550.10000 0.00973257 1641080256. s     m     ""   
#>  9 47550.10000 0.03649990 1641080256. s     m     ""   
#> 10 47550.10000 0.01653665 1641080256. s     m     ""   
#> # ... with 990 more rows
```
…
